…
cleaned_brfss = 
  brfss_smart2010 %>% 
  janitor::clean_names() %>% 
  filter(topic == "Overall Health", response %in% c("Excellent", "Very Good", "Good", "Poor")) %>% 
  mutate(response = factor(response, levels = c("Excellent", "Very Good", "Good", "Poor"))) %>% 
  separate(locationdesc, c("state", "location", "rest")) %>% 
  unite(location, c("location", "rest")) %>% 
  arrange(response)

cleaned_brfss
```

    ## # A tibble: 6,375 × 24
    ##     year locationabbr state location  class  topic question response sample_size
    ##    <int> <chr>        <chr> <chr>     <chr>  <chr> <chr>    <fct>          <int>
    ##  1  2010 AL           AL    Jefferso… Healt… Over… How is … Excelle…          94
    ##  2  2010 AL           AL    Mobile_C… Healt… Over… How is … Excelle…          91
    ##  3  2010 AL           AL    Tuscaloo… Healt… Over… How is … Excelle…          58
    ##  4  2010 AZ           AZ    Maricopa… Healt… Over… How is … Excelle…         269
    ##  5  2010 AZ           AZ    Pinal_Co… Healt… Over… How is … Excelle…          68
    ##  6  2010 AZ           AZ    Pima_Cou… Healt… Over… How is … Excelle…         133
    ##  7  2010 AR           AR    Benton_C… Healt… Over… How is … Excelle…          67
    ##  8  2010 AR           AR    Pulaski_… Healt… Over… How is … Excelle…         100
    ##  9  2010 AR           AR    Washingt… Healt… Over… How is … Excelle…          47
    ## 10  2010 CA           CA    Alameda_… Healt… Over… How is … Excelle…         167
    ## # … with 6,365 more rows, and 15 more variables: data_value <dbl>,
    ## #   confidence_limit_low <dbl>, confidence_limit_high <dbl>,
    ## #   display_order <int>, data_value_unit <chr>, data_value_type <chr>,
    ## #   data_value_footnote_symbol <chr>, data_value_footnote <chr>,
    ## #   data_source <chr>, class_id <chr>, topic_id <chr>, location_id <chr>,
    ## #   question_id <chr>, respid <chr>, geo_location <chr>
…
